…
Now, this isn’t very interesting so you will probably want to use your
own data. For this demonstration, I use one of my own chat logs from a
conversation with friends:

``` r
chat <- rwa_read("/home/johannes/WhatsApp Chat.txt")
chat
```

    ## # A tibble: 16,816 x 6
    ##    time                author   text                source      emoji emoji_name
    ##    <dttm>              <fct>    <chr>               <chr>       <lis> <list>    
    ##  1 2015-12-10 19:57:21 Artur K… <Media omitted>     /home/joha… <NUL… <NULL>    
    ##  2 2015-12-10 22:31:21 Erika I… 😂😂😂😂😂😂        /home/joha… <chr… <chr [6]> 
    ##  3 2015-12-11 02:13:21 Alexand… 🙈                  /home/joha… <chr… <chr [1]> 
    ##  4 2015-12-11 02:23:21 Johanne… 😂                  /home/joha… <chr… <chr [1]> 
    ##  5 2015-12-11 02:24:21 Johanne… Die Petitionen Tru… /home/joha… <chr… <chr [1]> 
    ##  6 2015-12-11 03:51:21 Erika I… Läääuft             /home/joha… <NUL… <NULL>    
    ##  7 2015-12-12 07:49:21 Johanne… <Media omitted>     /home/joha… <NUL… <NULL>    
    ##  8 2015-12-12 07:53:21 Erika I… was macht ihr huet… /home/joha… <NUL… <NULL>    
    ##  9 2015-12-12 07:55:21 Johanne… Alex arbeitet weil… /home/joha… <NUL… <NULL>    
    ## 10 2015-12-12 07:55:21 Johanne… und ich spiele auf… /home/joha… <NUL… <NULL>    
    ## # … with 16,806 more rows
…
